sha256/sim/obj_dir/simx.vcd
$version Generated by VerilatedVcd $end
$date Tue Jun  4 16:55:49 2019
 $end
$timescale   1ns $end

 $scope module top $end
  $var wire  1 8" clk_i $end
  $var wire 32 E" read_addr [31:0] $end
  $var wire  1 H" read_addr_ready $end
  $var wire  1 G" read_addr_valid $end
  $var wire 32 J" read_data [31:0] $end
  $var wire  1 I" read_data_ready $end
  $var wire  1 L" read_data_valid $end
  $var wire  3 F" read_prot [2:0] $end
  $var wire  2 K" read_resp [1:0] $end
  $var wire  1 9" rst_ni $end
  $var wire 32 :" write_addr [31:0] $end
  $var wire  1 =" write_addr_ready $end
  $var wire  1 <" write_addr_valid $end
  $var wire 32 >" write_data [31:0] $end
  $var wire  1 A" write_data_ready $end
  $var wire  1 @" write_data_valid $end
  $var wire  3 ;" write_prot [2:0] $end
  $var wire  2 C" write_resp [1:0] $end
  $var wire  1 B" write_resp_ready $end
  $var wire  1 D" write_resp_valid $end
  $var wire  4 ?" write_strb [3:0] $end
  $scope module top $end
   $var wire  1 8" clk_i $end
   $var wire 32 E" read_addr [31:0] $end
   $var wire  1 H" read_addr_ready $end
   $var wire  1 G" read_addr_valid $end
   $var wire 32 J" read_data [31:0] $end
   $var wire  1 I" read_data_ready $end
   $var wire  1 L" read_data_valid $end
   $var wire  3 F" read_prot [2:0] $end
   $var wire  2 K" read_resp [1:0] $end
   $var wire  1 9" rst_ni $end
   $var wire 32 :" write_addr [31:0] $end
   $var wire  1 =" write_addr_ready $end
   $var wire  1 <" write_addr_valid $end
   $var wire 32 >" write_data [31:0] $end
   $var wire  1 A" write_data_ready $end
   $var wire  1 @" write_data_valid $end
   $var wire  3 ;" write_prot [2:0] $end
   $var wire  2 C" write_resp [1:0] $end
   $var wire  1 B" write_resp_ready $end
   $var wire  1 D" write_resp_valid $end
   $var wire  4 ?" write_strb [3:0] $end
   $scope module sha256_v1_0 $end
    $var wire 32 N" C_S00_AXI_ADDR_WIDTH [31:0] $end
    $var wire 32 N" C_S00_AXI_DATA_WIDTH [31:0] $end
    $var wire  1 8" s00_axi_aclk $end
    $var wire 32 E" s00_axi_araddr [31:0] $end
    $var wire  1 9" s00_axi_aresetn $end
    $var wire  3 F" s00_axi_arprot [2:0] $end
    $var wire  1 H" s00_axi_arready $end
    $var wire  1 G" s00_axi_arvalid $end
    $var wire 32 :" s00_axi_awaddr [31:0] $end
    $var wire  3 ;" s00_axi_awprot [2:0] $end
    $var wire  1 =" s00_axi_awready $end
    $var wire  1 <" s00_axi_awvalid $end
    $var wire  1 B" s00_axi_bready $end
    $var wire  2 C" s00_axi_bresp [1:0] $end
    $var wire  1 D" s00_axi_bvalid $end
    $var wire 32 J" s00_axi_rdata [31:0] $end
    $var wire  1 I" s00_axi_rready $end
    $var wire  2 K" s00_axi_rresp [1:0] $end
    $var wire  1 L" s00_axi_rvalid $end
    $var wire 32 >" s00_axi_wdata [31:0] $end
    $var wire  1 A" s00_axi_wready $end
    $var wire  4 ?" s00_axi_wstrb [3:0] $end
    $var wire  1 @" s00_axi_wvalid $end
    $scope module sha256_v1_0_S00_AXI_inst $end
     $var wire 32 U" ADDR_LSB [31:0] $end
     $var wire 32 O" CORE_NAME0 [31:0] $end
     $var wire 32 P" CORE_NAME1 [31:0] $end
     $var wire 32 Q" CORE_VERSION [31:0] $end
     $var wire 32 R" CTRL_INIT_BIT [31:0] $end
     $var wire 32 T" CTRL_MODE_BIT [31:0] $end
     $var wire 32 S" CTRL_NEXT_BIT [31:0] $end
     $var wire 32 N" C_S_AXI_ADDR_WIDTH [31:0] $end
     $var wire 32 N" C_S_AXI_DATA_WIDTH [31:0] $end
     $var wire 32 V" OPT_MEM_ADDR_BITS [31:0] $end
     $var wire  1 8" S_AXI_ACLK $end
     $var wire 32 E" S_AXI_ARADDR [31:0] $end
     $var wire  1 9" S_AXI_ARESETN $end
     $var wire  3 F" S_AXI_ARPROT [2:0] $end
     $var wire  1 H" S_AXI_ARREADY $end
     $var wire  1 G" S_AXI_ARVALID $end
     $var wire 32 :" S_AXI_AWADDR [31:0] $end
     $var wire  3 ;" S_AXI_AWPROT [2:0] $end
     $var wire  1 =" S_AXI_AWREADY $end
     $var wire  1 <" S_AXI_AWVALID $end
     $var wire  1 B" S_AXI_BREADY $end
     $var wire  2 C" S_AXI_BRESP [1:0] $end
     $var wire  1 D" S_AXI_BVALID $end
     $var wire 32 J" S_AXI_RDATA [31:0] $end
     $var wire  1 I" S_AXI_RREADY $end
     $var wire  2 K" S_AXI_RRESP [1:0] $end
     $var wire  1 L" S_AXI_RVALID $end
     $var wire 32 >" S_AXI_WDATA [31:0] $end
     $var wire  1 A" S_AXI_WREADY $end
     $var wire  4 ?" S_AXI_WSTRB [3:0] $end
     $var wire  1 @" S_AXI_WVALID $end
     $var wire  1 o! aw_en $end
     $var wire 32 C! axi_araddr [31:0] $end
     $var wire  1 D! axi_arready $end
     $var wire 32 >! axi_awaddr [31:0] $end
     $var wire  1 ?! axi_awready $end
     $var wire  2 A! axi_bresp [1:0] $end
     $var wire  1 B! axi_bvalid $end
     $var wire 32 E! axi_rdata [31:0] $end
     $var wire  2 F! axi_rresp [1:0] $end
     $var wire  1 G! axi_rvalid $end
     $var wire  1 @! axi_wready $end
     $var wire 32 &! block_reg(0) [31:0] $end
     $var wire 32 '! block_reg(1) [31:0] $end
     $var wire 32 0! block_reg(10) [31:0] $end
     $var wire 32 1! block_reg(11) [31:0] $end
     $var wire 32 2! block_reg(12) [31:0] $end
     $var wire 32 3! block_reg(13) [31:0] $end
     $var wire 32 4! block_reg(14) [31:0] $end
     $var wire 32 5! block_reg(15) [31:0] $end
     $var wire 32 (! block_reg(2) [31:0] $end
     $var wire 32 )! block_reg(3) [31:0] $end
     $var wire 32 *! block_reg(4) [31:0] $end
     $var wire 32 +! block_reg(5) [31:0] $end
     $var wire 32 ,! block_reg(6) [31:0] $end
     $var wire 32 -! block_reg(7) [31:0] $end
     $var wire 32 .! block_reg(8) [31:0] $end
     $var wire 32 /! block_reg(9) [31:0] $end
     $var wire 32 n! byte_index [31:0] $end
     $var wire 512 # core_block [511:0] $end
     $var wire 256 4 core_digest [255:0] $end
     $var wire  1 q! core_digest_valid $end
     $var wire  1 3 core_ready $end
     $var wire 256 6! digest_reg [255:0] $end
     $var wire  1 #! init_reg $end
     $var wire  1 %! mode_reg $end
     $var wire  1 $! next_reg $end
     $var wire 32 < reg_data_out [31:0] $end
     $var wire 32 H! slv_reg0 [31:0] $end
     $var wire 32 I! slv_reg1 [31:0] $end
     $var wire 32 R! slv_reg10 [31:0] $end
     $var wire 32 S! slv_reg11 [31:0] $end
     $var wire 32 T! slv_reg12 [31:0] $end
     $var wire 32 U! slv_reg13 [31:0] $end
     $var wire 32 V! slv_reg14 [31:0] $end
     $var wire 32 W! slv_reg15 [31:0] $end
     $var wire 32 X! slv_reg16 [31:0] $end
     $var wire 32 Y! slv_reg17 [31:0] $end
     $var wire 32 Z! slv_reg18 [31:0] $end
     $var wire 32 [! slv_reg19 [31:0] $end
     $var wire 32 J! slv_reg2 [31:0] $end
     $var wire 32 \! slv_reg20 [31:0] $end
     $var wire 32 ]! slv_reg21 [31:0] $end
     $var wire 32 ^! slv_reg22 [31:0] $end
     $var wire 32 _! slv_reg23 [31:0] $end
     $var wire 32 `! slv_reg24 [31:0] $end
     $var wire 32 a! slv_reg25 [31:0] $end
     $var wire 32 b! slv_reg26 [31:0] $end
     $var wire 32 c! slv_reg27 [31:0] $end
     $var wire 32 d! slv_reg28 [31:0] $end
     $var wire 32 e! slv_reg29 [31:0] $end
     $var wire 32 K! slv_reg3 [31:0] $end
     $var wire 32 f! slv_reg30 [31:0] $end
     $var wire 32 g! slv_reg31 [31:0] $end
     $var wire 32 h! slv_reg32 [31:0] $end
     $var wire 32 i! slv_reg33 [31:0] $end
     $var wire 32 j! slv_reg34 [31:0] $end
     $var wire 32 k! slv_reg35 [31:0] $end
     $var wire 32 l! slv_reg36 [31:0] $end
     $var wire 32 m! slv_reg37 [31:0] $end
     $var wire 32 L! slv_reg4 [31:0] $end
     $var wire 32 M! slv_reg5 [31:0] $end
     $var wire 32 N! slv_reg6 [31:0] $end
     $var wire 32 O! slv_reg7 [31:0] $end
     $var wire 32 P! slv_reg8 [31:0] $end
     $var wire 32 Q! slv_reg9 [31:0] $end
     $var wire  1 M" slv_reg_rden $end
     $var wire  1 "! slv_reg_wren $end
     $scope module core $end
      $var wire 32 T" CTRL_DONE [31:0] $end
      $var wire 32 R" CTRL_IDLE [31:0] $end
      $var wire 32 S" CTRL_ROUNDS [31:0] $end
      $var wire 32 F H0_new [31:0] $end
      $var wire 32 z! H0_reg [31:0] $end
      $var wire 32 G H1_new [31:0] $end
      $var wire 32 {! H1_reg [31:0] $end
      $var wire 32 H H2_new [31:0] $end
      $var wire 32 |! H2_reg [31:0] $end
      $var wire 32 I H3_new [31:0] $end
      $var wire 32 }! H3_reg [31:0] $end
      $var wire 32 J H4_new [31:0] $end
      $var wire 32 ~! H4_reg [31:0] $end
      $var wire 32 K H5_new [31:0] $end
      $var wire 32 !" H5_reg [31:0] $end
      $var wire 32 L H6_new [31:0] $end
      $var wire 32 "" H6_reg [31:0] $end
      $var wire 32 M H7_new [31:0] $end
      $var wire 32 #" H7_reg [31:0] $end
      $var wire  1 N H_we $end
      $var wire 32 W" SHA224_H0_0 [31:0] $end
      $var wire 32 X" SHA224_H0_1 [31:0] $end
      $var wire 32 Y" SHA224_H0_2 [31:0] $end
      $var wire 32 Z" SHA224_H0_3 [31:0] $end
      $var wire 32 [" SHA224_H0_4 [31:0] $end
      $var wire 32 \" SHA224_H0_5 [31:0] $end
      $var wire 32 ]" SHA224_H0_6 [31:0] $end
      $var wire 32 ^" SHA224_H0_7 [31:0] $end
      $var wire 32 _" SHA256_H0_0 [31:0] $end
      $var wire 32 `" SHA256_H0_1 [31:0] $end
      $var wire 32 a" SHA256_H0_2 [31:0] $end
      $var wire 32 b" SHA256_H0_3 [31:0] $end
      $var wire 32 c" SHA256_H0_4 [31:0] $end
      $var wire 32 d" SHA256_H0_5 [31:0] $end
      $var wire 32 e" SHA256_H0_6 [31:0] $end
      $var wire 32 f" SHA256_H0_7 [31:0] $end
      $var wire 32 g" SHA256_ROUNDS [31:0] $end
      $var wire  1 E a_h_we $end
      $var wire 32 = a_new [31:0] $end
      $var wire 32 r! a_reg [31:0] $end
      $var wire 32 > b_new [31:0] $end
      $var wire 32 s! b_reg [31:0] $end
      $var wire 512 # block [511:0] $end
      $var wire 32 ? c_new [31:0] $end
      $var wire 32 t! c_reg [31:0] $end
      $var wire  1 8" clk $end
      $var wire 32 @ d_new [31:0] $end
      $var wire 32 u! d_reg [31:0] $end
      $var wire 256 4 digest [255:0] $end
      $var wire  1 W digest_init $end
      $var wire  1 X digest_update $end
      $var wire  1 q! digest_valid $end
      $var wire  1 S digest_valid_new $end
      $var wire  1 q! digest_valid_reg $end
      $var wire  1 T digest_valid_we $end
      $var wire 32 A e_new [31:0] $end
      $var wire 32 v! e_reg [31:0] $end
      $var wire 32 B f_new [31:0] $end
      $var wire 32 w! f_reg [31:0] $end
      $var wire  1 [ first_block $end
      $var wire 32 C g_new [31:0] $end
      $var wire 32 x! g_reg [31:0] $end
      $var wire 32 D h_new [31:0] $end
      $var wire 32 y! h_reg [31:0] $end
      $var wire  1 #! init $end
      $var wire 32 ^ k_data [31:0] $end
      $var wire  1 %! mode $end
      $var wire  1 $! next $end
      $var wire  1 3 ready $end
      $var wire  1 3 ready_flag $end
      $var wire  1 9" reset_n $end
      $var wire  2 U sha256_ctrl_new [1:0] $end
      $var wire  2 %" sha256_ctrl_reg [1:0] $end
      $var wire  1 V sha256_ctrl_we $end
      $var wire  1 Y state_init $end
      $var wire  1 Z state_update $end
      $var wire 32 \ t1 [31:0] $end
      $var wire 32 ] t2 [31:0] $end
      $var wire  1 Q t_ctr_inc $end
      $var wire  6 O t_ctr_new [5:0] $end
      $var wire  6 $" t_ctr_reg [5:0] $end
      $var wire  1 R t_ctr_rst $end
      $var wire  1 P t_ctr_we $end
      $var wire 32 a w_data [31:0] $end
      $var wire  1 _ w_init $end
      $var wire  1 ` w_next $end
      $scope module k_constants_inst $end
       $var wire 32 ^ K [31:0] $end
       $var wire  6 $" addr [5:0] $end
       $var wire 32 ^ tmp_K [31:0] $end
      $upscope $end
      $scope module t1_logic $end
       $var wire 32 c ch [31:0] $end
       $var wire 32 b sum1 [31:0] $end
      $upscope $end
      $scope module t2_logic $end
       $var wire 32 e maj [31:0] $end
       $var wire 32 d sum0 [31:0] $end
      $upscope $end
      $scope module w_mem_inst $end
       $var wire 32 R" CTRL_IDLE [31:0] $end
       $var wire 32 S" CTRL_UPDATE [31:0] $end
       $var wire 512 # block [511:0] $end
       $var wire  1 8" clk $end
       $var wire  1 _ init $end
       $var wire  1 ` next $end
       $var wire  1 9" reset_n $end
       $var wire 32 a w [31:0] $end
       $var wire  6 w w_ctr_new [5:0] $end
       $var wire  6 6" w_ctr_reg [5:0] $end
       $var wire  1 x w_ctr_we $end
       $var wire 32 &" w_mem(0) [31:0] $end
       $var wire 32 '" w_mem(1) [31:0] $end
       $var wire 32 0" w_mem(10) [31:0] $end
       $var wire 32 1" w_mem(11) [31:0] $end
       $var wire 32 2" w_mem(12) [31:0] $end
       $var wire 32 3" w_mem(13) [31:0] $end
       $var wire 32 4" w_mem(14) [31:0] $end
       $var wire 32 5" w_mem(15) [31:0] $end
       $var wire 32 (" w_mem(2) [31:0] $end
       $var wire 32 )" w_mem(3) [31:0] $end
       $var wire 32 *" w_mem(4) [31:0] $end
       $var wire 32 +" w_mem(5) [31:0] $end
       $var wire 32 ," w_mem(6) [31:0] $end
       $var wire 32 -" w_mem(7) [31:0] $end
       $var wire 32 ." w_mem(8) [31:0] $end
       $var wire 32 /" w_mem(9) [31:0] $end
       $var wire 32 f w_mem00_new [31:0] $end
       $var wire 32 g w_mem01_new [31:0] $end
       $var wire 32 h w_mem02_new [31:0] $end
       $var wire 32 i w_mem03_new [31:0] $end
       $var wire 32 j w_mem04_new [31:0] $end
       $var wire 32 k w_mem05_new [31:0] $end
       $var wire 32 l w_mem06_new [31:0] $end
       $var wire 32 m w_mem07_new [31:0] $end
       $var wire 32 n w_mem08_new [31:0] $end
       $var wire 32 o w_mem09_new [31:0] $end
       $var wire 32 p w_mem10_new [31:0] $end
       $var wire 32 q w_mem11_new [31:0] $end
       $var wire 32 r w_mem12_new [31:0] $end
       $var wire 32 s w_mem13_new [31:0] $end
       $var wire 32 t w_mem14_new [31:0] $end
       $var wire 32 u w_mem15_new [31:0] $end
       $var wire  1 v w_mem_we $end
       $var wire 32 y w_new [31:0] $end
       $var wire 32 a w_tmp [31:0] $end
       $scope module reg_update $end
        $var wire 32 7" i [31:0] $end
       $upscope $end
       $scope module w_mem_update_logic $end
        $var wire 32 ~ d0 [31:0] $end
        $var wire 32 !! d1 [31:0] $end
        $var wire 32 z w_0 [31:0] $end
        $var wire 32 { w_1 [31:0] $end
        $var wire 32 } w_14 [31:0] $end
        $var wire 32 | w_9 [31:0] $end
       $upscope $end
      $upscope $end
     $upscope $end
     $scope module write_mem $end
      $var wire 32 p! i [31:0] $end
     $upscope $end
    $upscope $end
   $upscope $end
  $upscope $end
 $upscope $end
$enddefinitions $end


#0
b00000000000000000000000000000000000000000000000000000000000000000000000000000000000000000000000000000000000000000000000000000000000000000000000000000000000000000000000000000000000000000000000000000000000000000000000000000000000000000000000000000000000000000000000000000000000000000000000000000000000000000000000000000000000000000000000000000000000000000000000000000000000000000000000000000000000000000000000000000000000000000000000000000000000000000000000000000000000000000000000000000000000000000000000000000000 #
13
b0000000000000000000000000000000000000000000000000000000000000000000000000000000000000000000000000000000000000000000000000000000000000000000000000000000000000000000000000000000000000000000000000000000000000000000000000000000000000000000000000000000000000000 4
b00000000000000000000000000000001 <
b00000000000000000000000000000000 =
b00000000000000000000000000000000 >
b00000000000000000000000000000000 ?
b00000000000000000000000000000000 @
b00000000000000000000000000000000 A
b00000000000000000000000000000000 B
b00000000000000000000000000000000 C
b00000000000000000000000000000000 D
0E
b00000000000000000000000000000000 F
b00000000000000000000000000000000 G
b00000000000000000000000000000000 H
b00000000000000000000000000000000 I
b00000000000000000000000000000000 J
b00000000000000000000000000000000 K
b00000000000000000000000000000000 L
b00000000000000000000000000000000 M
0N
b000000 O
0P
0Q
0R
0S
0T
b00 U
0V
0W
0X
0Y
0Z
0[
b01000010100010100010111110011000 \
b00000000000000000000000000000000 ]
b01000010100010100010111110011000 ^
0_
0`
b00000000000000000000000000000000 a
b00000000000000000000000000000000 b
b00000000000000000000000000000000 c
b00000000000000000000000000000000 d
b00000000000000000000000000000000 e
b00000000000000000000000000000000 f
b00000000000000000000000000000000 g
b00000000000000000000000000000000 h
b00000000000000000000000000000000 i
b00000000000000000000000000000000 j
b00000000000000000000000000000000 k
b00000000000000000000000000000000 l
b00000000000000000000000000000000 m
b00000000000000000000000000000000 n
b00000000000000000000000000000000 o
b00000000000000000000000000000000 p
b00000000000000000000000000000000 q
b00000000000000000000000000000000 r
b00000000000000000000000000000000 s
b00000000000000000000000000000000 t
b00000000000000000000000000000000 u
0v
b000000 w
0x
b00000000000000000000000000000000 y
b00000000000000000000000000000000 z
b00000000000000000000000000000000 {
b00000000000000000000000000000000 |
b00000000000000000000000000000000 }
b00000000000000000000000000000000 ~
b00000000000000000000000000000000 !!
0"!
0#!
0$!
0%!
b00000000000000000000000000000000 &!
b00000000000000000000000000000000 '!
b00000000000000000000000000000000 (!
b00000000000000000000000000000000 )!
b00000000000000000000000000000000 *!
b00000000000000000000000000000000 +!
b00000000000000000000000000000000 ,!
b00000000000000000000000000000000 -!
b00000000000000000000000000000000 .!
b00000000000000000000000000000000 /!
b00000000000000000000000000000000 0!
b00000000000000000000000000000000 1!
b00000000000000000000000000000000 2!
b00000000000000000000000000000000 3!
b00000000000000000000000000000000 4!
b00000000000000000000000000000000 5!
b0000000000000000000000000000000000000000000000000000000000000000000000000000000000000000000000000000000000000000000000000000000000000000000000000000000000000000000000000000000000000000000000000000000000000000000000000000000000000000000000000000000000000000 6!
b00000000000000000000000000000000 >!
0?!
0@!
b00 A!
0B!
b00000000000000000000000000000000 C!
0D!
b00000000000000000000000000000000 E!
b00 F!
0G!
b00000000000000000000000000000000 H!
b00000000000000000000000000000000 I!
b00000000000000000000000000000000 J!
b00000000000000000000000000000000 K!
b00000000000000000000000000000000 L!
b00000000000000000000000000000000 M!
b00000000000000000000000000000000 N!
b00000000000000000000000000000000 O!
b00000000000000000000000000000000 P!
b00000000000000000000000000000000 Q!
b00000000000000000000000000000000 R!
b00000000000000000000000000000000 S!
b00000000000000000000000000000000 T!
b00000000000000000000000000000000 U!
b00000000000000000000000000000000 V!
b00000000000000000000000000000000 W!
b00000000000000000000000000000000 X!
b00000000000000000000000000000000 Y!
b00000000000000000000000000000000 Z!
b00000000000000000000000000000000 [!
b00000000000000000000000000000000 \!
b00000000000000000000000000000000 ]!
b00000000000000000000000000000000 ^!
b00000000000000000000000000000000 _!
b00000000000000000000000000000000 `!
b00000000000000000000000000000000 a!
b00000000000000000000000000000000 b!
b00000000000000000000000000000000 c!
b00000000000000000000000000000000 d!
b00000000000000000000000000000000 e!
b00000000000000000000000000000000 f!
b00000000000000000000000000000000 g!
b00000000000000000000000000000000 h!
b00000000000000000000000000000000 i!
b00000000000000000000000000000000 j!
b00000000000000000000000000000000 k!
b00000000000000000000000000000000 l!
b00000000000000000000000000000000 m!
b00000000000000000000000000000000 n!
1o!
b00000000000000000000000000010000 p!
0q!
b00000000000000000000000000000000 r!
b00000000000000000000000000000000 s!
b00000000000000000000000000000000 t!
b00000000000000000000000000000000 u!
b00000000000000000000000000000000 v!
b00000000000000000000000000000000 w!
b00000000000000000000000000000000 x!
b00000000000000000000000000000000 y!
b00000000000000000000000000000000 z!
b00000000000000000000000000000000 {!
b00000000000000000000000000000000 |!
b00000000000000000000000000000000 }!
b00000000000000000000000000000000 ~!
b00000000000000000000000000000000 !"
b00000000000000000000000000000000 ""
b00000000000000000000000000000000 #"
b000000 $"
b00 %"
b00000000000000000000000000000000 &"
b00000000000000000000000000000000 '"
b00000000000000000000000000000000 ("
b00000000000000000000000000000000 )"
b00000000000000000000000000000000 *"
b00000000000000000000000000000000 +"
b00000000000000000000000000000000 ,"
b00000000000000000000000000000000 -"
b00000000000000000000000000000000 ."
b00000000000000000000000000000000 /"
b00000000000000000000000000000000 0"
b00000000000000000000000000000000 1"
b00000000000000000000000000000000 2"
b00000000000000000000000000000000 3"
b00000000000000000000000000000000 4"
b00000000000000000000000000000000 5"
b000000 6"
b00000000000000000000000000010000 7"
18"
09"
b00000000000000000000000000000000 :"
b000 ;"
0<"
0="
b00000000000000000000000000000000 >"
b0000 ?"
0@"
0A"
0B"
b00 C"
0D"
b00000000000000000000000000000000 E"
b000 F"
0G"
0H"
0I"
b00000000000000000000000000000000 J"
b00 K"
0L"
0M"
b00000000000000000000000000100000 N"
b01110011011010000110000100110010 O"
b00101101001100100011010100110110 P"
b00110001001011100011100000110000 Q"
b00000000000000000000000000000000 R"
b00000000000000000000000000000001 S"
b00000000000000000000000000000010 T"
b00000000000000000000000000000010 U"
b00000000000000000000000000000101 V"
b11000001000001011001111011011000 W"
b00110110011111001101010100000111 X"
b00110000011100001101110100010111 Y"
b11110111000011100101100100111001 Z"
b11111111110000000000101100110001 ["
b01101000010110000001010100010001 \"
b01100100111110011000111110100111 ]"
b10111110111110100100111110100100 ^"
b01101010000010011110011001100111 _"
b10111011011001111010111010000101 `"
b00111100011011101111001101110010 a"
b10100101010011111111010100111010 b"
b01010001000011100101001001111111 c"
b10011011000001010110100010001100 d"
b00011111100000111101100110101011 e"
b01011011111000001100110100011001 f"
b00000000000000000000000000111111 g"
#1
08"
#2
18"
#3
08"
#4
18"
#5
08"
#6
18"
#7
08"
#8
18"
#9
08"
#10
18"
19"
#11
08"
#12
1"!
b00000000000000000000000000010100 >!
1?!
1@!
0o!
18"
b00000000000000000000000000010100 :"
1<"
1="
b01100001011000100110001110000000 >"
b1111 ?"
1@"
1A"
1B"
#13
08"
#14
b01100001011000100110001110000000000000000000000000000000000000000000000000000000000000000000000000000000000000000000000000000000000000000000000000000000000000000000000000000000000000000000000000000000000000000000000000000000000000000000000000000000000000000000000000000000000000000000000000000000000000000000000000000000000000000000000000000000000000000000000000000000000000000000000000000000000000000000000000000000000000000000000000000000000000000000000000000000000000000000000000000000000000000000000000000000 #
0"!
b01100001011000100110001110000000 &!
0?!
0@!
1B!
b00000000000000000000000000000100 n!
18"
0="
0A"
1D"
#15
08"
#16
18"
0<"
b0000 ?"
0@"
0B"
#17
08"
#18
0B!
1o!
18"
b00000000000000000000000000011000 :"
1<"
b00000000000000000000000000000000 >"
b1111 ?"
1@"
1B"
0D"
#19
08"
#20
1"!
b00000000000000000000000000011000 >!
1?!
1@!
0o!
18"
1="
1A"
#21
08"
#22
0"!
0?!
0@!
1B!
18"
0="
0A"
1D"
#23
08"
#24
18"
0<"
b0000 ?"
0@"
0B"
#25
08"
#26
0B!
1o!
18"
b00000000000000000000000000011100 :"
1<"
b1111 ?"
1@"
1B"
0D"
#27
08"
#28
1"!
b00000000000000000000000000011100 >!
1?!
1@!
0o!
18"
1="
1A"
#29
08"
#30
0"!
0?!
0@!
1B!
18"
0="
0A"
1D"
#31
08"
#32
18"
0<"
b0000 ?"
0@"
0B"
#33
08"
#34
0B!
1o!
18"
b00000000000000000000000000100000 :"
1<"
b1111 ?"
1@"
1B"
0D"
#35
08"
#36
1"!
b00000000000000000000000000100000 >!
1?!
1@!
0o!
18"
1="
1A"
#37
08"
#38
0"!
0?!
0@!
1B!
18"
0="
0A"
1D"
#39
08"
#40
18"
0<"
b0000 ?"
0@"
0B"
#41
08"
#42
0B!
1o!
18"
b00000000000000000000000000100100 :"
1<"
b1111 ?"
1@"
1B"
0D"
#43
08"
#44
1"!
b00000000000000000000000000100100 >!
1?!
1@!
0o!
18"
1="
1A"
#45
08"
#46
0"!
0?!
0@!
1B!
18"
0="
0A"
1D"
#47
08"
#48
18"
0<"
b0000 ?"
0@"
0B"
#49
08"
#50
0B!
1o!
18"
b00000000000000000000000000101000 :"
1<"
b1111 ?"
1@"
1B"
0D"
#51
08"
#52
1"!
b00000000000000000000000000101000 >!
1?!
1@!
0o!
18"
1="
1A"
#53
08"
#54
0"!
0?!
0@!
1B!
18"
0="
0A"
1D"
#55
08"
#56
18"
0<"
b0000 ?"
0@"
0B"
#57
08"
#58
0B!
1o!
18"
b00000000000000000000000000101100 :"
1<"
b1111 ?"
1@"
1B"
0D"
#59
08"
#60
1"!
b00000000000000000000000000101100 >!
1?!
1@!
0o!
18"
1="
1A"
#61
08"
#62
0"!
0?!
0@!
1B!
18"
0="
0A"
1D"
#63
08"
#64
18"
0<"
b0000 ?"
0@"
0B"
#65
08"
#66
0B!
1o!
18"
b00000000000000000000000000110000 :"
1<"
b1111 ?"
1@"
1B"
0D"
#67
08"
#68
1"!
b00000000000000000000000000110000 >!
1?!
1@!
0o!
18"
1="
1A"
#69
08"
#70
0"!
0?!
0@!
1B!
18"
0="
0A"
1D"
#71
08"
#72
18"
0<"
b0000 ?"
0@"
0B"
#73
08"
#74
0B!
1o!
18"
b00000000000000000000000000110100 :"
1<"
b1111 ?"
1@"
1B"
0D"
#75
08"
#76
1"!
b00000000000000000000000000110100 >!
1?!
1@!
0o!
18"
1="
1A"
#77
08"
#78
0"!
0?!
0@!
1B!
18"
0="
0A"
1D"
#79
08"
#80
18"
0<"
b0000 ?"
0@"
0B"
#81
08"
#82
0B!
1o!
18"
b00000000000000000000000000111000 :"
1<"
b1111 ?"
1@"
1B"
0D"
#83
08"
#84
1"!
b00000000000000000000000000111000 >!
1?!
1@!
0o!
18"
1="
1A"
#85
08"
#86
0"!
0?!
0@!
1B!
18"
0="
0A"
1D"
#87
08"
#88
18"
0<"
b0000 ?"
0@"
0B"
#89
08"
#90
0B!
1o!
18"
b00000000000000000000000000111100 :"
1<"
b1111 ?"
1@"
1B"
0D"
#91
08"
#92
1"!
b00000000000000000000000000111100 >!
1?!
1@!
0o!
18"
1="
1A"
#93
08"
#94
0"!
0?!
0@!
1B!
18"
0="
0A"
1D"
#95
08"
#96
18"
0<"
b0000 ?"
0@"
0B"
#97
08"
#98
0B!
1o!
18"
b00000000000000000000000001000000 :"
1<"
b1111 ?"
1@"
1B"
0D"
#99
08"
#100
1"!
b00000000000000000000000001000000 >!
1?!
1@!
0o!
18"
1="
1A"
#101
08"
#102
0"!
0?!
0@!
1B!
18"
0="
0A"
1D"
#103
08"
#104
18"
0<"
b0000 ?"
0@"
0B"
#105
08"
#106
0B!
1o!
18"
b00000000000000000000000001000100 :"
1<"
b1111 ?"
1@"
1B"
0D"
#107
08"
#108
1"!
b00000000000000000000000001000100 >!
1?!
1@!
0o!
18"
1="
1A"
#109
08"
#110
0"!
0?!
0@!
1B!
18"
0="
0A"
1D"
#111
08"
#112
18"
0<"
b0000 ?"
0@"
0B"
#113
08"
#114
0B!
1o!
18"
b00000000000000000000000001001000 :"
1<"
b1111 ?"
1@"
1B"
0D"
#115
08"
#116
1"!
b00000000000000000000000001001000 >!
1?!
1@!
0o!
18"
1="
1A"
#117
08"
#118
0"!
0?!
0@!
1B!
18"
0="
0A"
1D"
#119
08"
#120
18"
0<"
b0000 ?"
0@"
0B"
#121
08"
#122
0B!
1o!
18"
b00000000000000000000000001001100 :"
1<"
b1111 ?"
1@"
1B"
0D"
#123
08"
#124
1"!
b00000000000000000000000001001100 >!
1?!
1@!
0o!
18"
1="
1A"
#125
08"
#126
0"!
0?!
0@!
1B!
18"
0="
0A"
1D"
#127
08"
#128
18"
0<"
b0000 ?"
0@"
0B"
#129
08"
#130
0B!
1o!
18"
b00000000000000000000000001010000 :"
1<"
b00000000000000000000000000011000 >"
b1111 ?"
1@"
1B"
0D"
#131
08"
#132
1"!
b00000000000000000000000001010000 >!
1?!
1@!
0o!
18"
1="
1A"
#133
08"
#134
b01100001011000100110001110000000000000000000000000000000000000000000000000000000000000000000000000000000000000000000000000000000000000000000000000000000000000000000000000000000000000000000000000000000000000000000000000000000000000000000000000000000000000000000000000000000000000000000000000000000000000000000000000000000000000000000000000000000000000000000000000000000000000000000000000000000000000000000000000000000000000000000000000000000000000000000000000000000000000000000000000000000000000000000000000011000 #
0"!
b00000000000000000000000000011000 5!
0?!
0@!
1B!
18"
0="
0A"
1D"
#135
08"
#136
18"
0<"
b0000 ?"
0@"
0B"
#137
08"
#138
0B!
1o!
18"
b00000000000000000000000000000100 :"
1<"
b00000000000000000000000000000101 >"
b1111 ?"
1@"
1B"
0D"
#139
08"
#140
1"!
b00000000000000000000000000000100 >!
1?!
1@!
0o!
18"
1="
1A"
#141
08"
#142
b01101010000010011110011001100111 =
b10111011011001111010111010000101 >
b00111100011011101111001101110010 ?
b10100101010011111111010100111010 @
b01010001000011100101001001111111 A
b10011011000001010110100010001100 B
b00011111100000111101100110101011 C
b01011011111000001100110100011001 D
1E
b01101010000010011110011001100111 F
b10111011011001111010111010000101 G
b00111100011011101111001101110010 H
b10100101010011111111010100111010 I
b01010001000011100101001001111111 J
b10011011000001010110100010001100 K
b00011111100000111101100110101011 L
b01011011111000001100110100011001 M
1N
1P
1R
1T
b01 U
1V
1W
1Y
1[
1_
b01100001011000100110001110000000 f
b00000000000000000000000000011000 u
1v
1x
0"!
1#!
1%!
0?!
0@!
1B!
18"
0="
0A"
1D"
#143
08"
