sha256/trace_sha256_1_block.vcd
$date
	Tue Jun  4 17:00:16 2019
$end
$version
	GTKWave Analyzer v3.3.86 (w)1999-2017 BSI
$end
$timescale
	1ns
$end
$scope module top $end
$scope module top $end
$scope module sha256_v1_0 $end
$scope module sha256_v1_0_S00_AXI_inst $end
$var wire 32 9 block_reg(9)[31:0] $end
$var wire 32 8 block_reg(8)[31:0] $end
$var wire 32 7 block_reg(7)[31:0] $end
$var wire 32 5 block_reg(5)[31:0] $end
$var wire 32 6 block_reg(6)[31:0] $end
$var wire 32 4 block_reg(4)[31:0] $end
$var wire 32 3 block_reg(3)[31:0] $end
$var wire 32 2 block_reg(2)[31:0] $end
$var wire 32 ? block_reg(15)[31:0] $end
$var wire 32 > block_reg(14)[31:0] $end
$var wire 32 = block_reg(13)[31:0] $end
$var wire 32 < block_reg(12)[31:0] $end
$var wire 32 ; block_reg(11)[31:0] $end
$var wire 32 : block_reg(10)[31:0] $end
$var wire 32 0 block_reg(0)[31:0] $end
$var wire 32 1 block_reg(1)[31:0] $end
$var wire 1 B axi_wready $end
$var wire 1 . axi_bvalid $end
$var wire 1 @ axi_awready $end
$var wire 2 D axi_bresp[1:0] $end
$var wire 1 ' aw_en $end
$var wire 1 C S_AXI_WVALID $end
$var wire 1 A S_AXI_AWVALID $end
$upscope $end
$var wire 1 ) s00_axi_wvalid $end
$var wire 4 * s00_axi_wstrb[3:0] $end
$var wire 1 + s00_axi_wready $end
$var wire 32 ( s00_axi_wdata[31:0] $end
$var wire 1 - s00_axi_bvalid $end
$var wire 2 , s00_axi_bresp[1:0] $end
$var wire 1 / s00_axi_bready $end
$var wire 1 % s00_axi_awvalid $end
$var wire 1 & s00_axi_awready $end
$var wire 32 $ s00_axi_awaddr[31:0] $end
$var wire 1 # s00_axi_aresetn $end
$var wire 1 " s00_axi_aclk $end
$upscope $end
$var wire 32 E read_data[31:0] $end
$upscope $end
$upscope $end
$enddefinitions $end
$dumpvars
#0
0%
0C
0.
b0 $
b0 5
b0 9
b0 8
0&
b0 2
b0 1
b0 ?
0#
0B
1"
b0 =
b0 6
b0 E
0@
1'
b0 >
b0 D
0/
b0 ;
b0 4
0A
b0 7
b0 *
b0 <
0)
b0 0
b0 3
0+
b0 (
b0 ,
b0 :
0-
#1
0"
#2
1"
#3
0"
#4
1"
#5
0"
#6
1"
#7
0"
#8
1"
#9
0"
#10
1"
1#
#11
0"
#12
1"
1%
1C
b10100 $
1&
0'
1B
1@
b1111 *
1/
1A
1)
b1100001011000100110001110000000 (
1+
#13
0"
#14
1"
0+
0B
1-
1.
0&
0@
b1100001011000100110001110000000 0
#15
0"
#16
1"
0C
0%
b0 *
0)
0A
0/
#17
0"
#18
1"
1/
1C
0.
0-
b11000 $
1'
1A
b0 (
1)
b1111 *
1%
#19
0"
#20
1"
1B
1+
0'
1@
1&
#21
0"
#22
1"
0&
0B
1-
1.
0@
0+
#23
0"
#24
1"
0%
0/
0C
b0 *
0)
0A
#25
0"
#26
1"
1A
1/
0-
b11100 $
1%
1)
0.
b1111 *
1'
1C
#27
0"
#28
1"
1+
1B
1&
0'
1@
#29
0"
#30
1"
0@
0B
1-
0+
0&
1.
#31
0"
#32
1"
0C
0/
0A
0%
0)
b0 *
#33
0"
#34
1"
b1111 *
1/
1C
0.
b100000 $
0-
1)
1'
1%
1A
#35
0"
#36
1"
1B
1@
1&
0'
1+
#37
0"
#38
1"
0+
0B
1.
1-
0&
0@
#39
0"
#40
1"
0C
0/
b0 *
0A
0%
0)
#41
0"
#42
1"
1)
b1111 *
1C
b100100 $
1/
1%
1'
1A
0.
0-
#43
0"
#44
1"
1@
1+
1B
1&
0'
#45
0"
#46
1"
1-
0+
0@
0&
1.
0B
#47
0"
#48
1"
b0 *
0)
0C
0/
0%
0A
#49
0"
#50
1"
1A
1)
1'
b101000 $
b1111 *
0-
1%
0.
1/
1C
#51
0"
#52
1"
1B
1+
0'
1@
1&
#53
0"
#54
1"
0&
0+
0B
0@
1-
1.
#55
0"
#56
1"
0C
b0 *
0)
0A
0/
0%
#57
0"
#58
1"
1%
1)
b1111 *
1C
0.
b101100 $
1/
0-
1A
1'
#59
0"
#60
1"
0'
1+
1&
1B
1@
#61
0"
#62
1"
0@
1.
0+
0B
0&
1-
#63
0"
#64
1"
b0 *
0)
0%
0C
0A
0/
#65
0"
#66
1"
1/
1%
b1111 *
0-
0.
1)
1'
1A
b110000 $
1C
#67
0"
#68
1"
1@
0'
1&
1B
1+
#69
0"
#70
1"
0+
1.
1-
0B
0@
0&
#71
0"
#72
1"
0)
b0 *
0%
0/
0C
0A
#73
0"
#74
1"
1A
1/
b1111 *
1)
1%
0.
1C
0-
b110100 $
1'
#75
0"
#76
1"
0'
1&
1+
1B
1@
#77
0"
#78
1"
0@
0&
0B
1.
0+
1-
#79
0"
#80
1"
0%
0/
0A
b0 *
0)
0C
#81
0"
#82
1"
1C
b1111 *
1%
0-
1A
1'
1/
1)
0.
b111000 $
#83
0"
#84
1"
0'
1@
1+
1&
1B
#85
0"
#86
1"
0B
1-
0&
0@
1.
0+
#87
0"
#88
1"
b0 *
0C
0%
0A
0)
0/
#89
0"
#90
1"
1/
1%
1'
b111100 $
1C
b1111 *
1)
0-
1A
0.
#91
0"
#92
1"
1+
1B
0'
1&
1@
#93
0"
#94
1"
0@
1.
0B
0+
0&
1-
#95
0"
#96
1"
0C
0%
0/
0A
b0 *
0)
#97
0"
#98
1"
1)
1%
1C
0-
0.
b1000000 $
b1111 *
1/
1A
1'
#99
0"
#100
1"
0'
1B
1@
1&
1+
#101
0"
#102
1"
0+
0B
1.
1-
0&
0@
#103
0"
#104
1"
0%
0)
0C
0A
b0 *
0/
#105
0"
#106
1"
1/
1)
0.
1%
1'
b1111 *
b1000100 $
1A
0-
1C
#107
0"
#108
1"
1@
1+
1B
0'
1&
#109
0"
#110
1"
0&
0+
0@
1.
0B
1-
#111
0"
#112
1"
0C
0%
0/
0)
0A
b0 *
#113
0"
#114
1"
b1111 *
1/
1C
0-
1%
1A
0.
1'
1)
b1001000 $
#115
0"
#116
1"
1@
1&
1+
0'
1B
#117
0"
#118
1"
0B
1-
0&
0@
0+
1.
#119
0"
#120
1"
0/
b0 *
0C
0A
0%
0)
#121
0"
#122
1"
1)
b1111 *
0.
b1001100 $
1/
0-
1%
1C
1A
1'
#123
0"
#124
1"
0'
1&
1B
1+
1@
#125
0"
#126
1"
0@
0&
1.
0+
1-
0B
#127
0"
#128
1"
0/
b0 *
0)
0A
0C
0%
#129
0"
#130
1"
1%
b1111 *
1/
1'
b1010000 $
1C
0-
0.
1A
1)
b11000 (
#131
0"
#132
1"
0'
1B
1&
1@
1+
#133
0"
#134
1"
0+
0&
b11000 ?
0B
0@
1.
1-
#135
0"
#136
1"
0%
0/
b0 *
0C
0A
0)
#137
0"
#138
1"
1)
0-
1'
b101 (
1/
1%
1A
0.
b100 $
1C
b1111 *
#139
0"
#140
1"
1+
1&
0'
1@
1B
#141
0"
#142
1"
0B
1-
0&
0+
0@
1.
#143
0"
#144
1"
b0 *
0)
0/
0A
0%
0C
#145
0"
#146
1"
1C
1)
0.
b1111 *
0-
b100 (
1%
1/
1A
1'
#147
0"
#148
1"
0'
1&
1B
1@
1+
#149
0"
#150
1"
0+
0&
1-
1.
0@
0B
#151
0"
#152
1"
0)
0C
b0 *
0A
0/
0%
#153
0"
#154
1"
#155
0"
#156
1"
b1011011111000001100110100011001 E
#157
0"
#158
1"
#159
0"
#160
1"
#161
0"
#162
1"
#163
0"
#164
1"
#165
0"
#166
1"
b10011011000001010110100010001100 E
#167
0"
#168
1"
#169
0"
#170
1"
#171
0"
#172
1"
#173
0"
#174
1"
#175
0"
#176
1"
b10100101010011111111010100111010 E
#177
0"
#178
1"
#179
0"
#180
1"
#181
0"
#182
1"
#183
0"
#184
1"
#185
0"
#186
1"
b10111011011001111010111010000101 E
